<svg version="1.1" class="svg-car-bl" xmlns="http://www.w3.org/2000/svg" xmlns:xlink="http://www.w3.org/1999/xlink" x="0px" y="0px"
	 width="63px" height="47.722px" viewBox="0 0 63 47.722" enable-background="new 0 0 63 47.722" xml:space="preserve">
<g>
	<path fill="#6182C2" d="M14.302,35.288c-3.429-0.003-6.205,2.775-6.208,6.196c-0.003,3.429,2.768,6.205,6.196,6.209
		c3.422,0.002,6.203-2.769,6.206-6.197C20.498,38.074,17.722,35.292,14.302,35.288L14.302,35.288z M14.294,43.554
		c-1.135-0.001-2.063-0.925-2.063-2.065c0.001-1.136,0.93-2.057,2.066-2.056c1.138,0.001,2.061,0.924,2.06,2.059
		C16.357,42.633,15.434,43.555,14.294,43.554L14.294,43.554z M14.294,43.554"/>
	<path fill="#6182C2" d="M49.122,35.319c-3.428-0.004-6.202,2.775-6.205,6.197c-0.003,3.429,2.767,6.204,6.194,6.206
		c3.423,0.004,6.196-2.768,6.2-6.196C55.314,38.104,52.544,35.322,49.122,35.319L49.122,35.319z M49.114,43.585
		c-1.14-0.002-2.061-0.926-2.061-2.066c0.003-1.135,0.925-2.057,2.064-2.056c1.135,0,2.057,0.926,2.055,2.06
		C51.171,42.664,50.25,43.586,49.114,43.585L49.114,43.585z M49.114,43.585"/>
	<path fill="#6182C2" d="M17.155,0.009L7.025,0C4.216-0.003,1.94,2.271,1.937,5.08L1.912,34.52L1.25,34.519
		c-0.687,0-1.245,0.558-1.246,1.242L0,40.209c0,0.697,0.569,1.269,1.269,1.269l4.335,0.005c0.006-4.786,3.91-8.679,8.699-8.675
		c4.787,0.005,8.678,3.903,8.674,8.689l17.452,0.016c0.003-4.786,3.901-8.679,8.689-8.675c4.795,0.005,8.686,3.903,8.684,8.69
		l3.917,0.003c0.706,0.001,1.276-0.57,1.275-1.266L63,35.818c-0.001-0.686-0.552-1.244-1.243-1.245l0,0h-0.426l0.013-15.394
		c0.002-0.704-0.339-1.724-0.763-2.282l-7.036-9.265c-0.424-0.559-1.334-1.008-2.036-1.009l-11.452-0.01l0.005-5.31
		C40.063,0.6,39.5,0.029,38.797,0.028L17.155,0.009 M43.274,18.848l0.008-7.427l5.29,0.005c0.669,0,1.534,0.438,1.937,0.971
		l4.726,6.461L43.274,18.848z M43.274,18.848"/>
</g>
</svg>
