<svg version="1.1" id="Layer_1" xmlns="http://www.w3.org/2000/svg" xmlns:xlink="http://www.w3.org/1999/xlink" x="0px" y="0px"
	 width="35.689px" height="36px" viewBox="0 0 35.689 36" enable-background="new 0 0 35.689 36" xml:space="preserve">
<path fill="#1CB682" d="M33.883,27.421c-1.092,0.769-11.48,6.91-12.947,7.754c-1.719,0.99-2.166,1.1-4.776,0.273
	c-1.724-0.546-4.191-1.354-5.968-2.188c-1.583-0.743-2.714-0.766-3.918,0l-2.01,1.223L0,25.017c0,0,3.506-1.662,5.634-2.473
	c3.442-1.31,4.481-0.693,6.395,0.502c0.807,0.505,3.442,2.429,3.442,2.429s1.64,1.535,5.024,1.536c2.08,0,3.399,0.223,3.399,1.5
	c0,1.396-2.601,1.498-2.61,1.498h-4.894c-2.173-0.001-5.223-1.254-5.223-1.254s2.583,2.78,5.224,2.78l4.905,0.001
	c1.417-0.029,4.098-0.719,4.098-3.025c0-3-2.731-3-6.19-3c-0.27,0-0.514-0.045-0.756-0.098c0.132-0.069,0.265-0.139,0.428-0.23
	c0.615-0.349,1.443-0.848,2.385-1.43c2.464-1.528,3.732-1.722,4.963-0.101c0.857-0.871,1.937-1.109,2.86-1.108
	c1.039,0,1.921,0.687,1.675,1.797c2.674-1.579,3.994-0.942,4.581-0.182C36.115,25.168,35.584,26.219,33.883,27.421L33.883,27.421z
	 M11.891,12.755c0-3.729,3.023-6.752,6.752-6.752c3.729,0.001,6.752,3.024,6.752,6.753c0,3.729-3.023,6.752-6.753,6.752
	C14.915,19.507,11.891,16.483,11.891,12.755L11.891,12.755z M16.032,11.736h1.592v4.075l2.038,0V9.698H18.07L16.032,11.736z
	 M23.853,4.459h-1.238l1.588-1.585h1.237V7.63h-0.333c0.597,0.75,1.062,1.603,1.368,2.528c1.994-0.745,3.423-2.652,3.424-4.906
	C29.899,2.351,27.547,0,24.645,0c-2.655,0-4.831,1.983-5.179,4.543c1.655,0.163,3.166,0.819,4.388,1.814L23.853,4.459z
	 M23.853,4.459"/>
</svg>
