<svg xmlns="http://www.w3.org/2000/svg" width="491" height="216" xmlns:xlink="http://www.w3.org/1999/xlink">
  <defs>
    <path id="a" d="M0 .05h142.836v216.164H0"/>
    <path id="c" d="M0 .6h150.653V200H0V.6z"/>
  </defs>
  <g fill="none" fill-rule="evenodd">
    <path fill="#FEFEFE" d="M388.433 80.502c-13.34 0-24.19 10.86-24.19 24.21 0 13.346 10.85 24.206 24.19 24.206 13.338 0 24.19-10.86 24.19-24.207 0-13.34-10.852-24.2-24.19-24.2m0 51.23c-14.885 0-26.996-12.12-26.996-27.01 0-14.89 12.11-27.01 26.996-27.01 14.884 0 26.995 12.12 26.995 27.02s-12.11 27.02-26.995 27.02m62.73-51.22c-13.34 0-24.19 10.86-24.19 24.21 0 13.34 10.85 24.2 24.19 24.2 13.34 0 24.19-10.86 24.19-24.21 0-13.34-10.85-24.2-24.19-24.2m0 51.23c-14.885 0-26.996-12.12-26.996-27.01 0-14.9 12.11-27.02 26.995-27.02 14.885 0 26.995 12.12 26.995 27.02s-12.11 27.02-26.995 27.02"/>
    <path fill="#FEFEFE" d="M379.77 90.21c0 2.656-2.153 4.81-4.806 4.81-2.654 0-4.805-2.154-4.805-4.81 0-2.656 2.15-4.81 4.8-4.81s4.8 2.154 4.8 4.81m62.2 0c0 2.656-2.15 4.81-4.81 4.81-2.66 0-4.81-2.154-4.81-4.81 0-2.656 2.15-4.81 4.8-4.81s4.8 2.154 4.8 4.81m-20.67 59.173h-.03c-2.51 0-4.94-2.936-6.31-5.053.7-.09 1.4-.236 2.08-.527 1.9-.82 3.36-2.426 4.4-4.726 1.04 2.3 2.49 3.906 4.4 4.726.38.164.77.258 1.16.355-1.42 2.596-3.41 5.202-5.71 5.225m-4.24-22.143c.3-1.265 2.12-2.305 4.16-2.305 2.05 0 3.87 1.04 4.17 2.305-1.5.756-6.83.757-8.33 0m21.02 10.063c-1.84 1.533-7.39 5.17-11.01 3.62-2.6-1.117-3.67-4.773-4.1-8.23.07-.598.19-1.102.23-1.745 0-.034-.03-.055-.03-.087 2.55-.21 5.39-.96 5.39-3.24 0-3.26-3.23-5.82-7.35-5.82-4.12 0-7.35 2.56-7.35 5.82 0 .93.516 2.17 2.967 2.84.8.22 1.8.34 2.85.41 0 .03-.03.05-.02.09.04.65.164 1.15.232 1.75-.43 3.46-1.5 7.11-4.09 8.23-3.6 1.55-9.17-2.08-11.01-3.62-.67-.55-1.658-.46-2.21.21-.554.67-.466 1.66.2 2.21.235.2 4.3 3.53 8.822 4.47l-.29.15c.42.84 4.3 8.2 9.94 8.2h.05c3.44-.03 6.51-2.79 9.14-8.22h-.01c4.84-.66 9.39-4.37 9.64-4.58.66-.55.75-1.54.2-2.2-.56-.67-1.54-.76-2.21-.2M388.4 55.78c-.304.05-.596.105-.883.16.317.05.618-.01.887-.16m-39.39 92.97c-.298 0-.598-.094-.85-.29-.618-.47-.734-1.35-.26-1.968 6.15-8.034 16.532-12.414 30.023-12.67 10.045-.194 18.19 1.92 18.53 2.012.75.2 1.197.967 1 1.716-.197.75-.96 1.2-1.714 1-.32-.08-31.977-8.163-45.62 9.65-.278.36-.695.55-1.117.55m-.13 25.95c-.21 0-.427-.05-.63-.15-.69-.35-.97-1.195-.62-1.887 4.903-9.733 14.753-17.325 28.484-21.95 10.276-3.465 18.987-4.065 19.353-4.09.815-.054 1.44.537 1.49 1.31.05.774-.535 1.44-1.308 1.49-.343.02-34.44 2.51-45.516 24.5-.25.49-.74.77-1.26.77"/>
    <g transform="translate(347.36)">
      <mask id="b" fill="#fff">
        <use xlink:href="#a"/>
      </mask>
      <path fill="#FEFEFE" d="M67.718 34.07c9.188-.54 18.56 5.475 27.87 17.893-15.2-1.47-38.73-1.18-52.523.743 3.34-5.414 12.332-17.887 24.653-18.635M50.978 5.56c-5.56-.886-9.65-1.87-12.23-2.662 2.697.052 6.892.39 12.45 1.275 5.56.887 9.652 1.87 12.232 2.66-2.698-.05-6.894-.386-12.452-1.273M86.42 12.1c5.354 1.38 9.575 2.792 12.246 3.88-2.863-.337-7.242-1.14-12.595-2.52-5.35-1.38-9.57-2.792-12.24-3.88 2.87.338 7.24 1.14 12.6 2.52M.04 117.09v86.936c0 3.457.23 6.854.66 10.18l-.19 2.008h3.33c-.65-3.956-1-8.025-1-12.188V117.09c0-8.284 1.343-16.41 4-24.15.074-.223.094-.462.055-.694C.553 55.173 2.613 40.97 6.66 40.04c5.025-1.147 14.29 5.017 26.094 17.378.456.476 1.18.57 1.74.23 1.09-.66 3.074-1.236 5.677-1.73.29-.055.58-.11.88-.16 13.36-2.325 41.25-2.665 56.66-.842 1.29.15 2.48.32 3.58.502 2.87.476 5.06 1.053 6.24 1.74.56.324 1.27.226 1.72-.24 11.57-12.02 20.67-18.012 25.62-16.88 3.92.9 6.02 14.42.2 49.67-.04.246-.01.498.08.73 3.25 8.463 4.9 17.43 4.9 26.652v25.24c-6-5.392-14.53-8.32-25.04-8.53-9.65-.19-17.45 1.928-17.77 2.018-.74.206-1.18.978-.98 1.725.21.747.98 1.188 1.73.982.29-.08 28.36-7.555 42.07 7.786v16.47c-5.48-5.07-12.84-9.17-21.8-12.09-10.62-3.46-19.62-4.06-20-4.08-.77-.05-1.43.54-1.48 1.31-.05.78.54 1.44 1.31 1.49.32.02 27.58 1.95 41.98 17.32v37.31c0 4.1-.36 8.18-1.03 12.19h2.86l.12-.73c.57-3.77.86-7.61.86-11.46V117.1c0-9.44-1.67-18.62-4.95-27.3 5.54-33.67 4.76-50.843-2.39-52.487-6.02-1.38-15.28 4.32-27.56 16.943-1.86-.75-4.84-1.365-8.54-1.85C89.87 38.92 80.06 31.826 70.2 31.28c0-.005.007-.01.007-.017V10.928c2.19 1.3 6.567 3.027 15.22 5.256 8.17 2.106 12.79 2.763 15.42 2.763 3.21 0 3.46-.976 3.598-1.487.24-.93.87-3.398-17.265-8.07-11.42-2.95-15.9-3.064-17.716-2.51-.106-.06-.22-.096-.346-.125-.68-1.244-3.87-3.197-17.43-5.358-18.102-2.89-18.51-.372-18.66.577v.002c-.15.946-.55 3.465 17.56 6.353 6.215.99 10.34 1.34 13.09 1.34 1.728 0 2.904-.14 3.718-.35v21.94c0 .01.008.01.008.02-15.74 1.09-25.94 18.42-27.89 22-2.25.42-4.1.9-5.4 1.44C21.55 41.77 12.12 35.91 6.04 37.3c-2.7.62-10.92 2.506-1.96 55.064C1.39 100.3.03 108.614.03 117.09" mask="url(#b)"/>
    </g>
    <path fill="#FEFEFE" d="M422.212 186.518c-19.297 0-35.468 12.736-39.437 29.696h2.89c3.932-15.397 18.82-26.888 36.547-26.888 17.726 0 32.615 11.49 36.548 26.888h2.89c-3.97-16.96-20.14-29.696-39.438-29.696"/>
    <g fill="#FEFEFE">
      <path d="M244.41 212.712c1.618.988 8.246.988 9.86 0-.262-1.6-2.412-2.89-4.93-2.89-2.516 0-4.667 1.29-4.93 2.89m4.93 3.913c-1.852 0-3.6-.196-4.92-.553-2.666-.72-3.225-2.048-3.225-3.033 0-3.6 3.58-6.41 8.146-6.41 4.57 0 8.15 2.81 8.15 6.4 0 3.12-5.1 3.58-8.14 3.58"/>
      <path d="M258.185 231.888c-1.205 0-2.405-.205-3.55-.696-4.072-1.75-6.39-6.595-6.886-14.398-.06-.878.61-1.635 1.49-1.69.86-.046 1.63.61 1.69 1.488.28 4.472 1.37 10.125 4.96 11.67 4.16 1.792 10.55-2.37 12.66-4.124.68-.563 1.68-.47 2.24.206.56.674.47 1.678-.2 2.242-.31.257-6.44 5.302-12.41 5.302"/>
      <path d="M240.975 231.888c-5.976 0-12.1-5.045-12.408-5.302-.676-.564-.765-1.568-.202-2.242.562-.676 1.568-.77 2.244-.206 2.1 1.755 8.49 5.916 12.66 4.123 3.58-1.54 4.67-7.19 4.96-11.66.05-.88.81-1.53 1.69-1.49.88.06 1.54.82 1.49 1.69-.5 7.81-2.82 12.65-6.89 14.4-1.15.49-2.35.7-3.55.7m11.99-22.2c-.35-1.43-2.42-2.61-4.74-2.61-2.32 0-4.39 1.18-4.74 2.62 1.71.86 7.76.86 9.47 0m-41.83-63.45zm0 0zm1.59 8.1c-15.16 0-27.49 12.33-27.49 27.48s12.33 27.48 27.49 27.48 27.48-12.33 27.48-27.48-12.33-27.48-27.49-27.48m0 58.15c-16.91 0-30.68-13.76-30.68-30.67 0-16.91 13.76-30.66 30.67-30.66s30.68 13.76 30.68 30.67c0 16.91-13.76 30.67-30.68 30.67m71.28-58.15c-15.16 0-27.49 12.33-27.49 27.48 0 15.16 12.33 27.48 27.49 27.48s27.48-12.32 27.48-27.48c0-15.15-12.33-27.48-27.49-27.48m0 58.15c-16.91 0-30.67-13.76-30.67-30.67 0-16.91 13.76-30.66 30.67-30.66s30.67 13.76 30.67 30.67c0 16.91-13.76 30.67-30.68 30.67"/>
      <path d="M219.798 165.664c0 3.015-2.445 5.458-5.46 5.458-3.016 0-5.46-2.443-5.46-5.458 0-3.016 2.444-5.46 5.46-5.46 3.015 0 5.46 2.444 5.46 5.46m70.678 0c0 3.015-2.445 5.458-5.46 5.458-3.016 0-5.46-2.443-5.46-5.458 0-3.016 2.444-5.46 5.46-5.46 3.015 0 5.46 2.444 5.46 5.46"/>
      <path d="M322.778 171.45c9.233-56.124.25-58.183-2.705-58.862-6.738-1.543-17.15 4.84-30.942 18.99-12.62-5.074-70.31-4.685-82.87.55-14.05-14.536-24.64-21.11-31.47-19.54-3.04.696-12.27 2.817-2.22 61.754-3.01 8.9-4.53 18.225-4.53 27.72v30.05c.08-.148.16-.294.28-.42.91-.913 1.89-1.744 2.92-2.52v-27.11c0-9.282 1.51-18.39 4.49-27.07.09-.254.11-.524.07-.788-7.11-41.553-4.81-57.47-.27-58.51 5.63-1.3 16.03 5.624 29.27 19.48.52.54 1.34.647 1.98.26 9.12-5.516 72.68-5.94 81.94-.548.63.366 1.44.256 1.95-.273 12.98-13.472 23.17-20.194 28.73-18.92 4.38 1.007 6.74 16.157.21 55.664-.04.28-.01.568.09.832 3.65 9.48 5.5 19.53 5.5 29.87v97.47c0 5.21-.51 10.4-1.47 15.46h3.23c.92-5.08 1.43-10.26 1.43-15.47v-97.47c0-10.59-1.87-20.88-5.56-30.61"/>
    </g>
    <path fill="#FEFEFE" d="M76.794 154.233h-.03c-2.668 0-5.252-3.12-6.7-5.372.75-.09 1.494-.25 2.21-.55 2.026-.87 3.57-2.58 4.674-5.02 1.104 2.45 2.648 4.15 4.673 5.03.41.18.83.28 1.24.38-1.5 2.76-3.61 5.53-6.06 5.56m-4.5-23.54c.33-1.34 2.26-2.45 4.43-2.45 2.18 0 4.11 1.11 4.43 2.45-1.6.81-7.26.81-8.85 0m22.33 10.7c-1.95 1.63-7.85 5.5-11.69 3.85-2.75-1.18-3.89-5.07-4.35-8.75.08-.63.21-1.17.25-1.85.01-.03-.03-.06-.03-.09 2.71-.23 5.73-1.02 5.73-3.44 0-3.47-3.43-6.18-7.81-6.18-4.37 0-7.8 2.72-7.8 6.19 0 .99.55 2.31 3.15 3.02.85.23 1.91.36 3.03.44 0 .04-.03.06-.03.09.05.69.18 1.22.25 1.86-.45 3.68-1.59 7.56-4.34 8.75-3.82 1.65-9.74-2.22-11.69-3.85-.7-.59-1.75-.49-2.34.22s-.49 1.76.22 2.35c.25.21 4.57 3.75 9.37 4.75l-.3.16c.45.9 4.57 8.72 10.56 8.72h.06c3.66-.03 6.93-2.97 9.72-8.74l-.01-.01c5.14-.71 9.97-4.65 10.23-4.87.71-.59.8-1.64.21-2.35-.59-.71-1.64-.8-2.34-.21m-53.35-8.3c-13.93 0-25.26-11.35-25.26-25.3 0-13.95 11.335-25.3 25.265-25.3s25.26 11.34 25.26 25.29c0 13.958-11.337 25.308-25.267 25.308m28.56-25.35c0-15.79-12.82-28.634-28.59-28.634s-28.6 12.83-28.6 28.625 12.826 28.64 28.594 28.64 28.59-12.85 28.59-28.64m64.785 0c0 13.95-11.34 25.3-25.27 25.3s-25.26-11.35-25.26-25.304 11.32-25.32 25.25-25.32 25.26 11.36 25.26 25.31m-53.86 0c0 15.79 12.82 28.64 28.59 28.64s28.59-12.85 28.59-28.64c0-15.79-12.83-28.64-28.59-28.64S80.8 92 80.8 107.79"/>
    <path fill="#FEFEFE" d="M51.39 103.143c-3.428 0-6.21 2.783-6.21 6.22 0 3.433 2.782 6.218 6.21 6.218 3.43 0 6.21-2.78 6.21-6.21s-2.78-6.22-6.21-6.22m71.73 0c-3.428 0-6.21 2.79-6.21 6.22 0 3.44 2.782 6.22 6.21 6.22 3.43 0 6.21-2.78 6.21-6.21s-2.78-6.22-6.21-6.22M31.97 83.91c-.786.25-1.622-.19-1.87-.976l-2.982-9.49c-.245-.788.19-1.625.975-1.873.785-.25 1.62.19 1.87.97l2.98 9.49c.248.79-.19 1.63-.974 1.88m-11.5 8.35c-.6.57-1.54.55-2.11-.05l-6.86-7.2c-.57-.59-.55-1.54.05-2.11.59-.57 1.54-.54 2.1.05l6.86 7.2c.57.6.54 1.55-.05 2.11m27.78-9.06c.8.18 1.6-.33 1.77-1.13l2.14-9.71c.18-.8-.33-1.6-1.13-1.78-.81-.17-1.6.33-1.78 1.14l-2.15 9.71c-.18.81.33 1.61 1.13 1.78m.73-31.78c0 .83.68 1.49 1.5 1.48l9.93-.07c.82 0 1.49-.68 1.48-1.5-.01-.82-.68-1.48-1.5-1.48l-9.93.07c-.83.01-1.49.68-1.48 1.51m41.19 0c.01.83.68 1.49 1.5 1.48l9.93-.07c.82 0 1.49-.67 1.48-1.5 0-.82-.68-1.49-1.5-1.48l-9.93.07c-.82.01-1.49.68-1.48 1.51m28.03 32.5c.79.25 1.62-.19 1.87-.97l2.98-9.49c.24-.79-.19-1.62-.98-1.87s-1.62.19-1.87.98l-2.98 9.49c-.25.79.19 1.62.97 1.87m-16.28-.72c-.81.18-1.6-.33-1.78-1.13l-2.15-9.72c-.18-.8.33-1.6 1.13-1.78.8-.18 1.6.33 1.77 1.14l2.15 9.71c.18.808-.33 1.605-1.14 1.78"/>
    <path fill="#221F20" d="M42.047 71.27v.003-.002z"/>
    <g transform="translate(0 30)">
      <mask id="d" fill="#fff">
        <use xlink:href="#c"/>
      </mask>
      <path fill="#FEFEFE" d="M112.72 27.064c-.092 1.213-.213 2.337-.353 3.38-.447 3.31-1.09 5.732-1.707 7.154-.315.726-.62 1.206-.887 1.396l-2.302-1.276-2.07-1.2-14.46-8.363c.09-.14.12-.3.2-.44.59-1.04 1.01-2.14 1.28-3.29.22-.924.4-1.858.4-2.82v-.492c0-2.328-.64-4.58-1.86-6.552l14.48-8.37L107.48 5l2.3-1.23c.267.19.572.67.887 1.398 1.087 2.508 2.273 8.11 2.273 16.218 0 2.06-.08 3.957-.21 5.685zm-23.114-5.46c0 .92-.162 1.818-.426 2.684-.3.982-.74 1.922-1.36 2.776-.133.18-.294.327-.437.497-.23.28-.45.56-.704.8-1.74 1.64-4 2.54-6.35 2.54h-8.01c-2.69 0-5.24-1.18-7.01-3.23-.02-.01-.02-.03-.03-.04-.36-.42-.69-.87-.96-1.34-.36-.61-.62-1.28-.83-1.95-.28-.88-.46-1.79-.46-2.72v-.49c0-1.64.44-3.26 1.28-4.68.28-.48.61-.94.98-1.38 1.77-2.05 4.32-3.23 7.01-3.23h8c2.35 0 4.61.91 6.35 2.54.41.39.79.83 1.13 1.3 1.17 1.61 1.79 3.5 1.79 5.46v.5zm-29.403 2.893c.23.96.575 1.897 1.03 2.785l-.96.557-15.297 8.84-1.787 1.03-2.54 1.27c-.2-.14-.43-.45-.66-.9-.67-1.28-1.41-3.8-1.91-7.4-.15-1.03-.27-2.15-.37-3.35-.15-1.81-.24-3.79-.24-5.97 0-8.7 1.36-14.52 2.5-16.72.23-.45.45-.75.65-.9 0 0 1.13.41 2.54 1.23L44.94 6l16.28 9.416c-.905 1.765-1.38 3.713-1.38 5.68v.49c0 .976.12 1.947.35 2.894zM110.926 1.04c-.043-.028-.068-.06-.12-.088-.83-.446-1.61-.376-2.05-.276-.087.016-.172.04-.257.07-.07.024-.12.043-.12.043-.04.02-.08.03-.12.05L88.88 12.05c-2.32-2.214-5.34-3.425-8.55-3.425h-8.007c-3.564 0-6.913 1.51-9.282 4.163L42.4.85c-.037-.022-.08-.032-.116-.05-.043-.035-.107-.064-.2-.087h-.01c-.162-.052-.33-.07-.497-.066-1.005-.104-1.687.206-1.687.206s-.003.014-.005.017c-4.21 1.3-5.37 13.267-5.37 20.51 0 1.54.057 3.294.18 5.114.11 1.65.28 3.347.52 4.995.735 5.04 2.143 9.55 4.614 10.38l-.01.01s1.51.56 2.39.07c.01-.01.02-.02.03-.02.05-.03.1-.04.15-.07l20.65-11.95c2.37 2.65 5.71 4.16 9.28 4.16h8c3.21 0 6.23-1.21 8.56-3.43l19.38 11.21.11.06.22.08c.03.01.06.01.09.02.4.1 1.14.21 1.99-.18.02-.01.03-.02.05-.03 2.55-1.01 3.94-6.02 4.62-11.38.22-1.75.37-3.52.45-5.21.07-1.37.1-2.68.1-3.86 0-7.02-1.09-18.44-4.99-20.34z" mask="url(#d)"/>
    </g>
    <path fill="#FEFEFE" d="M75.21 105.883h-59.2c-.82 0-1.49-.67-1.49-1.493 0-.824.67-1.493 1.49-1.493h59.2c.825 0 1.49.67 1.49 1.493 0 .824-.665 1.493-1.49 1.493m66.54 0h-59.2c-.822 0-1.49-.67-1.49-1.493 0-.824.668-1.493 1.49-1.493h59.2c.823 0 1.49.67 1.49 1.493 0 .824-.667 1.493-1.49 1.493"/>
    <path fill="#FEFEFE" d="M102.252 147.19c.315-.06 31.232-5.918 45.07 6.652v13.903C133.497 153.615 103.9 152 102.55 151.933c-.904-.054-1.7.664-1.746 1.583-.043.92.664 1.702 1.58 1.748.34.015 33.715 1.824 44.94 17.645v42.41c0 4.95-.497 9.86-1.412 14.67h3.395c.877-4.82 1.345-9.73 1.345-14.68v-91.54c0-9.95-1.75-19.62-5.206-28.77 8.67-52.83.135-54.79-2.674-55.44-6.017-1.38-15.08 3.88-26.965 15.66-.086 1.69-.232 3.46-.454 5.2 12.076-12.54 21.53-18.79 26.674-17.62 4.034.93 6.166 15.1.063 52.08-.05.29-.018.59.088.87 3.414 8.89 5.145 18.31 5.145 27.99v25.77c-15.742-11.33-44.423-5.89-45.71-5.64-.902.18-1.49 1.05-1.313 1.95.177.9 1.05 1.49 1.952 1.32M21.426 230h3.508c6.896-18.97 27.005-32.74 50.69-32.74 23.684 0 43.794 13.77 50.692 32.74h3.505c-6.97-20.834-28.61-36.075-54.19-36.075S28.4 209.165 21.43 230M.017 123.78v91.547c0 5.014.45 9.91 1.3 14.648l.005.025h3.412c-.89-4.738-1.39-9.638-1.39-14.673v-41.255c11.744-17.197 46.788-19.175 47.144-19.192.912-.048 1.62-.832 1.574-1.75-.046-.92-.84-1.66-1.745-1.582-1.42.07-32.57 1.827-46.974 17.226v-15.257c14.384-13.85 46.957-7.45 47.287-7.382.887.17 1.78-.402 1.96-1.305.185-.9-.396-1.782-1.298-1.965-1.352-.274-31.573-6.218-47.95 6.27V123.78c0-8.696 1.416-17.232 4.204-25.37.09-.265.11-.547.064-.823-6.652-38.91-4.56-53.8-.387-54.76 5.22-1.207 14.905 5.283 27.273 18.247.2.21.45.332.71.415-.24-1.65-.41-3.35-.52-5C22.196 43.84 12.7 38.14 6.48 39.58c-2.888.663-11.66 2.68-2.222 58.154C1.444 106.097.016 114.86.016 123.78"/>
  </g>
</svg>
