<svg width="103" height="103" viewBox="0 0 103 103" xmlns="http://www.w3.org/2000/svg" xmlns:xlink="http://www.w3.org/1999/xlink">
  <defs>
    <path id="how-work-ico2a" d="M2.8 2.7C.6 3.7.3 5 1 7L1.8 8 .3 9l1 2 1.4-.6 3 6.3 2.8-1.3-3-6.3 2-.8-1-2.3-2 1L4 5.7c-.2-.5-.3-1 .5-1.3L5.7 4l-1-2.2-2 1z"/>
    <path id="how-work-ico2c" d="M2.8 2.7C.6 3.7.3 5 1 7L1.8 8 .3 9l1 2 1.4-.6 3 6.3 2.8-1.3-3-6.3 2-.8-1-2.3-2 1L4 5.7c-.2-.5-.3-1 .5-1.3L5.7 4l-1-2.2-2 1z"/>
    <path d="M9.7 2c-1.3.3-2 1.6-2 3v.4h-.5C5.4 5 3.8 4.4 2.5 3L1.8 2l-.2.5C1.3 4 1.6 5 2.2 6c.4.3.4.4-.3 0h-.6l.4 1.4c.2.5.7 1 1.3 1.4l.6.2H3c-.5 0-.5 0-.5.3.2.7 1 1.4 2 1.7l.5.2-.5.4c-.8.4-1.8.7-2.7.7H1c0 .2 1.2.8 2 1 2 .8 4.6.5 6.5-.7 1.4-1 2.7-2.5 3.4-4 .2-1 .5-2.6.5-3.3 0-.5 0-.6.6-1.2.5-.2.8-.6.8-.7 0-.2 0-.2-.4 0-.8.3-1 .3-.5-.2l.5-1h-.3c-.2.2-.6.4-1 .4l-.4.2-.5-.3-1-.5H9.7zm-2 2.3zm0 0zm0 0zm0 0zm0 0zm0 0zm0 0zm0 0zm0 0zm0 .2zm0 0zm0 0zm0 0zm0 0zm0 0zm0 0zm0 .2zm0 0zm0 0zm0 0zm0 .2v-.2zm0 0zm0 0z" id="how-work-ico2e"/>
    <path d="M9.7 2c-1.3.3-2 1.6-2 3v.4h-.5C5.4 5 3.8 4.4 2.5 3L1.8 2l-.2.5C1.3 4 1.6 5 2.2 6c.4.3.4.4-.3 0h-.6l.4 1.4c.2.5.7 1 1.3 1.4l.6.2H3c-.5 0-.5 0-.5.3.2.7 1 1.4 2 1.7l.5.2-.5.4c-.8.4-1.8.7-2.7.7H1c0 .2 1.2.8 2 1 2 .8 4.6.5 6.5-.7 1.4-1 2.7-2.5 3.4-4 .2-1 .5-2.6.5-3.3 0-.5 0-.6.6-1.2.5-.2.8-.6.8-.7 0-.2 0-.2-.4 0-.8.3-1 .3-.5-.2l.5-1h-.3c-.2.2-.6.4-1 .4l-.4.2-.5-.3-1-.5H9.7zm-2 2.3zm0 0zm0 0zm0 0zm0 0zm0 0zm0 0zm0 0zm0 0zm0 .2zm0 0zm0 0zm0 0zm0 0zm0 0zm0 0zm0 .2zm0 0zm0 0zm0 0zm0 0zm0 .2v-.2zm0 0zm0 0zm0 0z" id="how-work-ico2g"/>
    <path id="how-work-ico2i" d="M0 .5h102.5V103H0"/>
  </defs>
  <g fill="none" fill-rule="evenodd">
    <g fill="#FEFEFE">
      <path d="M33 56c0 1-1 2-2.3 2-1.2 0-2.2-1-2.2-2 0-1.3 1-2.3 2.2-2.3 1.2 0 2.2 1 2.2 2.2m20.3 0c0 1-1 2-2.2 2-1 0-2-1-2-2 0-1.3 1-2.3 2-2.3 1.3 0 2.3 1 2.3 2.2m-16.7 9H39c-.2-.3-.6-.6-1.2-.6s-1 .3-1.2.5m1.2 1.3h-1.4c-1-.4-1-1-1-1.2 0-1 1-1.8 2.4-1.8s2.5.8 2.5 2c0 .7-1 1-2.5 1"/>
      <path d="M40.3 70.6c-.4 0-.7 0-1-.2-1.3-.5-2-2-2-4.2-.2-.3 0-.6.5-.7.3 0 .6.3.6.6 0 1.3.4 3 1.3 3.3 1 .4 2.8-.7 3.4-1.2.3 0 .7 0 1 .2.2.3.2.7 0 1-.3 0-2 1.4-3.7 1.4"/>
      <path d="M35.4 70.6c-1.7 0-3.3-1.3-3.6-1.5-.2 0-.3-.5 0-.8.2-.3.6-.3.8 0 .6.4 2.3 1.5 3.4 1 1-.3 1.2-2 1.3-3 0-.4.3-.7.7-.7.3 0 .6.4.6.7-.2 2.3-1 3.7-2 4.2-.4.2-.8.2-1.2.2"/>
      <path d="M37.8 73.2c-2 0-3-2.4-3.3-2.7l1.2-.6c.2.5 1.2 2 2 2 1 0 1.6-1 2-2l1.2.5c-1 1.8-2 2.7-3.2 2.7zm21.7-1c-.2 0-.4 0-.5-.2-4-4.2-13.4-2.2-13.5-2.2-.4 0-.7-.2-.8-.5 0-.4.2-.7.5-.8.4 0 10.2-2 14.7 2.7.2.2.2.6 0 1h-.5m-44.2 0s-.3 0-.4-.2c-.4-.2-.4-.6 0-.8 4.6-4.8 14.8-2.8 15.2-2.7.3 0 .6.4.5.8 0 .3-.4.5-.8.5-.2 0-10-2-14.2 2.2 0 .2-.3.2-.5.2m0 6.3H15c-.3-.3-.4-.7-.2-1 3.7-5.7 14.6-6.3 15-6.4.4 0 .7.4.7.7 0 .4-.2.7-.6.7-.2 0-10.8.6-14.2 5.8 0 .2-.3.3-.5.3m12-27.8c-4.2 0-7.6 3.4-7.6 7.5 0 4 3.4 7.4 7.5 7.4 4 0 7.4-3.3 7.4-7.4 0-4-3.3-7.5-7.4-7.5m0 16.2c-4.8 0-8.7-4-8.7-8.8 0-4.8 4-8.7 8.7-8.7 4.8 0 8.7 4 8.7 8.7C36 63 32 67 27 67m20.4-16.3c-4 0-7.4 3.4-7.4 7.5 0 4 3.3 7.4 7.4 7.4 4 0 7.4-3.3 7.4-7.4 0-4-3.3-7.5-7.4-7.5m0 16.2C42.8 67 39 63 39 58c0-4.8 3.8-8.7 8.6-8.7s8.7 4 8.7 8.7c0 4.8-4 8.7-8.7 8.7M59 75.2c-4.8-3.7-13-4-13.4-4.2-.4 0-.7.4-.7.7 0 .4 0 .7.5.7 0 0 7.6.4 12.2 3.5l1.3-.7z"/>
      <path d="M65 73.7c-.8 0-1.5.2-2.2.5l-5.3 2.5c-1.2.6-2.2 1.6-2.6 3-.6 1.2-.5 2.6 0 3.8 1.2 2.6 4.3 3.7 7 2.5l5.2-2.5c1.2-.6 2-1.6 2.6-3 .5-1.2.4-2.6-.2-3.8-.6-1.3-1.6-2.2-3-2.7-.5-.2-1-.3-1.6-.3m-5.3 14c-2.4 0-4.7-1.3-5.8-3.6-.8-1.5-1-3.2-.3-4.8.5-1.6 1.7-3 3.3-3.6l5.3-2.5c3-1.4 7 0 8.5 3 .7 1.7.8 3.4.2 5-.6 1.6-1.7 3-3.3 3.6L62.4 87c-1 .6-1.8.7-2.7.7M26.3 75.4c-.7 0-1.5 0-2.2.5L19 78.3c-2.6 1.2-3.7 4.2-2.5 6.8 1.3 2.6 4.3 3.7 7 2.5l5.2-2.5c1.2-.6 2.2-1.6 2.6-3 .6-1.2.5-2.6 0-4-1-1.7-2.8-2.8-4.7-2.8m-5.3 14c-2.4 0-4.7-1.3-5.8-3.7-1.5-3 0-7 3-8.5l5.4-2.5c3.2-1.5 7 0 8.5 3 .8 1.6 1 3.4.3 5-.6 1.6-1.7 3-3.3 3.6l-5.3 2.5c-1 .4-1.8.6-2.7.6m22.3-74.8c-3.8 0-7 3-7 7V40c0 3.8 3.2 7 7 7h23c.3 0 .6.2.6.5v6.7l16-8c2.2-1.4 3.6-3.7 3.6-6.3V21.5c0-4-3-7-7-7H43.4zm23 41.3l-.4-.2c-.3 0-.4-.3-.4-.6v-7H43.3c-4.5 0-8.2-3.7-8.2-8.3V21.5c0-4.6 3.8-8.3 8.3-8.3h36.4c4.5 0 8.2 3.7 8.2 8.3V40c0 3-1.7 5.7-4.4 7v.2l-17 8.6H66z"/>
      <path d="M51.2 36.5l-3-6.3 2-1-.8-2-2 .8-.6-1c-.3-.6-.4-1 .5-1.4l1.2-.5-1-2-2 .8c-2 1-2.4 2.5-1.6 4.2l.5 1.3-1.4.7 1 2.2 1.5-.7 3 6.3 2.7-1.3z"/>
    </g>
    <g transform="translate(42.755 21.127)">
      <mask id="how-work-ico2b" fill="#fff">
        <use xlink:href="#how-work-ico2a"/>
      </mask>
      <path d="M-3.2 30.6l28.7-13.4-13.3-28.6L-16.5 2l13.3 28.6z" fill="#FEFEFE" mask="url(#how-work-ico2b)"/>
    </g>
    <g transform="translate(42.755 21.127)">
      <mask id="how-work-ico2d" fill="#fff">
        <use xlink:href="#how-work-ico2c"/>
      </mask>
      <path d="M-5.8 3.2l12-5.6L14.8 16l-12 5.6-8.6-18.4z" fill="#FEFEFE" mask="url(#how-work-ico2d)"/>
    </g>
    <path d="M62 28l.2.5h-.5c-2-.3-3.5-1-4.8-2.5l-.8-.7-.2.5c-.3 1 0 2.3.7 3 .4.6.3.6-.4.4-.3 0-.5-.2-.5 0 0 0 .2 1 .4 1.3.2.5.8 1 1.3 1.3l.5.3h-.5c-.6 0-.6 0-.6.3 0 .7 1 1.5 1.8 1.8l.6.3-.5.3c-1 .5-2 .8-2.8.8h-.8c0 .2 1.2.8 2 1 2 .7 4.6.4 6.5-.7 1.3-1 2.6-2.6 3.3-4.2.3-.8.6-2.4.6-3 0-.6 0-.7.5-1.3.4-.3.7-.7.7-.8 0-.2 0-.2-.4 0-.8.3-1 .3-.5-.2.3-.4.7-1 .7-1.2l-.4.2-1 .3-.4.2-.5-.4c-.3 0-.6-.4-.8-.4-.7-.3-1.4-.2-2 0-1.2.4-2 1.6-2 3 0 0 0-1.4 0 0" fill="#FEFEFE"/>
    <g transform="translate(54.415 23.07)">
      <mask id="how-work-ico2f" fill="#fff">
        <use xlink:href="#e"/>
      </mask>
      <path d="M-8 23.5h31.7V-8H-8v31.5z" fill="#FEFEFE" mask="url(#how-work-ico2f)"/>
    </g>
    <g transform="translate(54.415 23.07)">
      <mask id="how-work-ico2h" fill="#fff">
        <use xlink:href="#g"/>
      </mask>
      <path d="M-2.2-1.4H18V17H-2.2V-1.5z" fill="#FEFEFE" mask="url(#how-work-ico2h)"/>
    </g>
    <path d="M58.8 63v12.4l1.3-.6V63c0-3-.4-6-1.5-8.7l1-6.8h-1.3l-1 6.8v.3c1 2.7 1.6 5.5 1.6 8.4" fill="#FEFEFE"/>
    <g transform="translate(0 -.25)">
      <mask id="how-work-ico2j" fill="#fff">
        <use xlink:href="#how-work-ico2i"/>
      </mask>
      <path d="M57.6 101.3c1.6-3.3 2.5-7 2.5-10.7v-3.2H59v3.2c0 3.8-1 7.6-2.7 11h-4.8c-13.7 0-26.2-5.5-35.3-14.5V63.3c0-2.6.4-5 1.2-7.5v-.4c-2.6-15.2-.5-16-.2-16.2 1.5-.2 4.4 1.7 8 5.5.2.2.6.3.8 0 1.2-.6 6-1 10.7-1l-.5-1.3c-4.4 0-8.6.5-10.4 1-4-4-7-5.8-9-5.3-.8 0-3.5.7-.7 17.4-1 2.5-1.3 5-1.3 7.8v22.6c-8.3-9-13.4-21-13.4-34 0-27.6 22.4-50 50-50 27.5 0 50 22.4 50 50 0 25.4-19 46.4-43.7 49.5M51.2.5C23 .5 0 23.5 0 51.8c0 14 5.6 26.5 14.7 35.8l1.2 1.2C25 97.6 37.5 103 51 103c1.4 0 2.8 0 4-.2H57c25.5-3 45.5-24.7 45.5-51 0-28.3-23-51.3-51.3-51.3" fill="#FEFEFE" mask="url(#how-work-ico2j)"/>
    </g>
  </g>
</svg>
