<svg xmlns="http://www.w3.org/2000/svg" width="52" height="51">
  <path fill="#FFF" fill-rule="evenodd" d="M25.626 51c-2.138 0-4.227-.415-6.183-1.328C11.766 46.09 7.23 40.217 6.993 33.56c-.206-5.888 2.97-11.382 8.293-14.34 6.785-3.768 13.75-1.774 17.35 1.673 2.885 2.763 3.69 6.453 2.1 9.632-.617 1.235-2.118 1.737-3.354 1.118-1.235-.618-1.735-2.12-1.117-3.354.806-1.62-.336-3.07-1.088-3.79-2.392-2.29-7.096-3.34-11.462-.91-3.616 2.01-5.863 5.85-5.724 9.79.17 4.78 3.57 8.96 9.57 11.76 6.33 2.95 16.5-2.03 21.76-10.67 2.46-4.035 6.96-14.36-4.34-23.09-5.9-4.555-11.83-6.41-17.637-5.52C11.205 7.42 4.618 16.74 4.553 16.832c-.79 1.135-2.348 1.415-3.48.626C-.06 16.67-.34 15.11.45 13.98.767 13.522 8.35 2.8 20.58.92 27.79-.188 35.008 2 42.028 7.427c11.843 9.15 10.636 21.315 5.557 29.65C42.9 44.767 33.905 51 25.625 51"/>
</svg>
