<svg xmlns="http://www.w3.org/2000/svg" width="53" height="70">
  <path fill="#FEFEFE" fill-rule="evenodd" d="M21.535 15.163c.155-1.817.744-3.544 1.807-5.132.96-1.43 4.77-5.7 6.8-5.53 4.605.38-2.85 6.39-3.597 6.95-1.668 1.25-3.34 2.49-5.01 3.73M39.3 21.33c1.736 3.07 3.203 6.345 4.487 9.685-6.23-1.413-12.576.015-18.488 2.31-.41.158-.81.327-1.21.49-1.45-4.43-2.73-8.905-1.75-13.57l.35-.14c2.25-.884 4.54-1.73 6.92-2.208 4.14-.835 7.44-.54 9.68 3.432m9.51 26.65c.78 3.75 1.51 7.23-2.49 9.36-4.83 2.57-10.77 3.91-16.19 5.24.05-.26.04-.54-.09-.87-2.81-6.85-2.2-14.35-3.97-21.45-.28-1.14-.62-2.27-.98-3.4l.16-.07c6.17-2.5 12.79-4.26 19.35-2.23.18.05.34.07.5.07.46 1.34.89 2.68 1.3 4.02.94 3.06 1.74 6.164 2.39 9.3m-37.5 17.79c-7.324-1.445-6.093-11.63-6.336-17.277l-.066-1.53c5.59-3.18 11.32-6.208 17.22-8.787l.33 1.097c2.23 7.658 1.43 15.906 4.48 23.35.12.293.3.513.5.682-5 1.344-11.08 3.462-16.14 2.463M4.05 27.8c-.002-.03-.01-.054-.012-.083 4.95-2.023 9.88-4.09 14.84-6.093-.416 4.622.86 9.014 2.25 13.42C15.52 37.47 10.05 40.3 4.724 43.29L4.056 27.8m2.36-16.417c.666-4.08 5.625-2.943 7.812-.923 2.154 1.992 3.175 4.915 4.157 7.593-4.177-.144-12.81-1.525-11.97-6.67m26.312-10.25c-3.103-1.683-7.898 2.53-9.964 4.57-1.685 1.662-2.973 3.644-3.74 5.803-1.25-2.2-2.884-4.118-5.27-5.284-3.34-1.63-7.63-.967-9.775 2.245-2.216 3.32-.48 7.113 2.422 9.32 1.84 1.402 4.007 2.298 6.274 2.838-3.196 1.336-6.382 2.696-9.577 4.003-.265.106-.473.262-.635.443-.838.54-1.656 2.14-1.656 2.14l.07.08c-.05.17-.076.35-.067.56.29 6.89.59 13.77.89 20.66.22 5.25-.45 12.03 2.77 16.55 2.54 3.57 6.83 4.41 10.97 4 5.78-.56 11.59-2.26 17.17-3.8 5.25-1.44 11.6-2.63 16.23-5.62 4.23-2.74 4.2-6.81 3.32-11.34-1.23-6.28-3.06-12.45-5.42-18.4-.94-2.362-1.96-4.7-3.06-7-1.2-2.482-2.39-5.61-4.78-7.22-3.14-2.12-7.46-1.67-11.27-.652 2.32-1.65 4.52-3.47 5.88-5.61 1.5-2.345 2.15-6.65-.81-8.256" opacity=".15"/>
</svg>
