<svg width="140px" height="39px" viewBox="0 0 140 39" xmlns="http://www.w3.org/2000/svg" xmlns:sketch="http://www.bohemiancoding.com/sketch/ns">
    <g stroke="none" stroke-width="1" fill="none" fill-rule="evenodd" sketch:type="MSPage">
        <g sketch:type="MSArtboardGroup" transform="translate(-70.000000, -3157.000000)" fill="#FFFFFF">
            <g sketch:type="MSLayerGroup" transform="translate(-1.000000, 3118.000000)">
                <g transform="translate(71.000000, 39.000000)" sketch:type="MSShapeGroup">
                    <path d="M41.7720054,23.449938 L41.7720054,20.9824839 L46.7442289,20.9824839 L46.7442289,23.449938 L46.1127101,23.449938 L46.5231973,24.8418092 C46.7669241,25.7014646 46.9208568,26.6107934 46.9879557,27.5748644 L47.0254521,27.5748644 C47.1468221,25.9184059 47.3994296,24.4312427 47.7852481,23.1072924 L48.3713764,20.9834976 L51.7914452,20.9834976 L52.4989435,23.4519655 C52.8521994,24.6137167 53.1156611,25.9883543 53.288342,27.5768919 L53.3278119,27.5768919 C53.433394,26.3837146 53.5971941,25.38619 53.8221727,24.5772219 L54.1399056,23.4519655 L53.3801096,23.4519655 L53.3801096,20.9834976 L57.8954687,20.9834976 L57.8954687,23.4519655 L57.1356727,23.4519655 L54.9687739,30.4812699 L51.0681589,30.4812699 L49.7992009,26.1850207 L48.4611705,30.4812699 L44.652323,30.4812699 L42.5702846,23.4519655 L41.7720054,23.4519655 L41.7720054,23.449938 L41.7720054,23.449938 Z M58.5457356,30.4802562 L58.5457356,27.9955684 L59.3203329,27.9955684 L59.3203329,23.449938 L58.5457356,23.449938 L58.5457356,20.9824839 L62.8331559,20.9824839 L62.8331559,27.9945547 L63.7212292,27.9945547 L63.7212292,30.4792425 L58.5457356,30.4792425 L58.5457356,30.4802562 L58.5457356,30.4802562 Z M59.6479332,19.537898 C59.2552075,19.1384826 59.0618049,18.6944625 59.0618049,18.2098926 C59.0618049,17.7253228 59.2404063,17.2843439 59.6015561,16.8818873 C59.9666528,16.4763895 60.4501594,16.2726269 61.0540492,16.2726269 C61.661886,16.2726269 62.1532865,16.4763895 62.5282508,16.8818873 C62.903215,17.2833302 63.0906972,17.7253228 63.0906972,18.2098926 C63.0906972,18.752246 62.9091355,19.208431 62.5440388,19.577434 C62.178942,19.9474507 61.6845812,20.1309385 61.0609564,20.1309385 C60.5083775,20.1319522 60.0367119,19.9342721 59.6479332,19.537898 L59.6479332,19.537898 Z M64.5658855,30.4802562 L64.5658855,27.0588685 L67.0376894,27.0588685 C67.0376894,27.3619781 67.1669534,27.6194692 67.4314019,27.8313418 C67.6997973,28.0401732 67.9672061,28.1800699 68.237575,28.2449496 C68.511891,28.3098292 68.7644985,28.3392278 68.9983578,28.3392278 C69.5390957,28.3392278 69.8104514,28.1253277 69.8104514,27.6914451 C69.8104514,27.5779057 69.7621008,27.477545 69.6683597,27.3944179 C69.5696849,27.3112909 69.4256197,27.2383013 69.2341906,27.1754491 C69.0398012,27.108542 68.8404781,27.0467035 68.633261,26.9889201 L67.881359,26.787185 C67.5754671,26.7081129 67.3129921,26.6280271 67.0909738,26.5438863 C65.4519853,25.9518595 64.6349579,24.9391287 64.6349579,23.505694 C64.6349579,22.6217088 64.9813064,21.9414862 65.6759771,21.4680675 C66.3755815,20.9895801 67.1126822,20.7472952 67.889253,20.7472952 C68.50005,20.7472952 69.0615097,20.8942881 69.5756054,21.1862465 C70.0936481,21.4731362 70.4498642,21.8208506 70.6491873,22.2304034 L70.791279,20.9814701 L73.0647465,20.9814701 L73.0647465,24.4008304 L70.669909,24.4008304 C70.669909,24.0125662 70.4755196,23.6729618 70.0847674,23.3880996 C69.6930284,23.1012099 69.2578725,22.9582719 68.778313,22.9582719 C68.2957932,22.9582719 68.0550266,23.1904194 68.0550266,23.644577 C68.0550266,23.7449377 68.0905496,23.8361747 68.1615954,23.9193017 C68.237575,24.0024288 68.3619053,24.0885971 68.5345862,24.1696966 C68.7112141,24.247755 68.8651468,24.3116209 68.9983578,24.3643356 C69.134529,24.418064 69.3555606,24.4920674 69.659479,24.5904006 L70.3363881,24.8245756 C70.8179212,24.9928572 71.179071,25.1286989 71.4247713,25.2391971 C71.6675113,25.3486815 71.9586019,25.5240593 72.3059373,25.7612755 C72.6483388,25.997478 72.8999596,26.2894364 73.058826,26.636137 C73.2186792,26.9868926 73.3005793,27.3923904 73.3005793,27.8556717 C73.3005793,28.715327 72.9601512,29.4077145 72.2832421,29.9328342 C71.6063329,30.4528851 70.8021332,30.7124037 69.8657093,30.7124037 C69.2361641,30.7124037 68.6658237,30.5796032 68.1546882,30.3150158 C67.6474997,30.048401 67.2764824,29.7189341 67.0376894,29.3215462 L66.8768495,30.4782287 L64.5658855,30.4782287 L64.5658855,30.4802562 L64.5658855,30.4802562 Z M74.2370032,30.4802562 L74.2370032,27.9955684 L75.0116004,27.9955684 L75.0116004,18.7025725 L74.2370032,18.7025725 L74.2370032,16.2341046 L78.7128924,16.2341046 L78.7128924,22.160455 C78.8609046,21.9080326 79.2299484,21.5897168 79.8239707,21.2085489 C80.4199665,20.8304222 81.0169491,20.6388245 81.6099847,20.6388245 C82.2888673,20.6388245 82.8572342,20.7564189 83.3131118,20.9916076 C83.7680027,21.2247688 84.0985633,21.5623457 84.3087406,21.9982559 C84.5139842,22.4351798 84.6590362,22.8700762 84.7330423,23.3029451 C84.8090219,23.7297315 84.8465183,24.2366038 84.8465183,24.8225481 L84.8465183,27.9945547 L85.7158433,27.9945547 L85.7158433,30.4792425 L80.9636647,30.4792425 L80.9636647,25.3172554 C80.9636647,25.072943 80.9577442,24.8843865 80.9478767,24.7465173 C80.9380093,24.604593 80.8985393,24.430229 80.8344007,24.2163289 C80.7732223,23.9973601 80.6627065,23.8300922 80.4998931,23.7165528 C80.3420134,23.6030134 80.1347963,23.5442163 79.8762683,23.5442163 C79.1006844,23.5442163 78.7138791,24.1372568 78.7138791,25.3172554 L78.7138791,27.9945547 L80.0351348,27.9945547 L80.0351348,30.4792425 L74.2370032,30.4792425 L74.2370032,30.4802562 L74.2370032,30.4802562 Z M86.6058901,30.4802562 L86.6058901,27.9955684 L87.4100898,27.9955684 L87.4100898,23.449938 L86.6206913,23.449938 L86.6206913,20.9824839 L90.096018,20.9824839 L90.6564909,22.2020185 C90.8025296,21.9201976 90.9357406,21.7012287 91.0531636,21.5451121 C91.1686131,21.3889954 91.3314265,21.2166589 91.5386436,21.0281024 C91.7527679,20.8425871 92.0191899,20.7097866 92.3448168,20.6317283 C92.6674834,20.549615 93.0611959,20.506024 93.5151,20.506024 L93.5151,23.9193017 C92.633934,23.9193017 91.9777465,24.0733909 91.5455509,24.378528 C91.1222359,24.6877201 90.9090984,25.2371696 90.9090984,26.0349865 L90.9090984,27.9945547 L91.8366415,27.9945547 L91.8366415,30.4792425 L86.6058901,30.4792425 L86.6058901,30.4802562 L86.6058901,30.4802562 Z M95.6405553,22.0915204 C96.6440781,21.2024664 97.8252155,20.7554051 99.189888,20.7483089 C100.689745,20.7766937 101.914299,21.2328788 102.860591,22.1239602 C103.808856,23.0099729 104.295322,24.2244388 104.322951,25.7703992 L104.322951,25.8241277 C104.322951,27.3244695 103.847339,28.5156193 102.900061,29.3945358 C101.936995,30.2815623 100.726255,30.7245686 99.2747484,30.7296374 C97.8459372,30.7296374 96.6233563,30.2896722 95.6109528,29.401632 C94.6103903,28.532853 94.114056,27.3143321 94.1199765,25.7460693 C94.114056,24.2163289 94.6222313,22.9988217 95.6405553,22.0915204 L95.6405553,22.0915204 Z M97.9071156,25.715657 C97.9071156,26.4881303 98.0363796,27.108542 98.2919473,27.5819606 C98.551462,28.0563931 98.8780757,28.2925956 99.2727749,28.2925956 C99.6516861,28.2925956 99.9585648,28.0563931 100.185517,27.5819606 C100.414442,27.108542 100.527918,26.5043502 100.527918,25.7703992 C100.527918,25.0313795 100.404575,24.4271877 100.163808,23.9568103 C99.9240286,23.4844053 99.5993885,23.2400929 99.189888,23.2228593 C98.8287382,23.2228593 98.5267933,23.4641304 98.2781328,23.9436316 C98.0284856,24.4231328 97.9071156,25.0121183 97.9071156,25.715657 L97.9071156,25.715657 Z M104.885398,23.4894741 L104.885398,20.9834976 L109.35438,20.9834976 L109.35438,25.5676503 C109.35438,26.4009483 109.426412,27.0081813 109.575411,27.3883354 C109.72145,27.7684896 109.981952,27.9570461 110.350995,27.9570461 C110.685503,27.9570461 110.962779,27.8222181 111.187758,27.5505346 C111.410763,27.2758098 111.522265,26.9311367 111.522265,26.5114464 L111.522265,23.4894741 L110.298698,23.4894741 L110.298698,20.9834976 L115.086399,20.9834976 L115.086399,27.9570461 L115.999141,27.9570461 L115.999141,30.4802562 L112.495199,30.4802562 L112.002812,29.2840377 L111.819276,29.496924 C111.697906,29.6520269 111.614033,29.7503602 111.568642,29.7848275 L111.295313,30.0494148 C111.156182,30.1862703 111.032838,30.282576 110.922322,30.3312358 C110.814767,30.3788818 110.679582,30.4407202 110.517756,30.5177648 C110.36185,30.6008918 110.185222,30.6586752 109.993792,30.6890876 C109.80039,30.7265961 109.595146,30.7438298 109.370168,30.7438298 C108.002535,30.7438298 107.041442,30.3788818 106.48985,29.6459445 C105.936284,28.9109797 105.660982,27.7340223 105.660982,26.1160861 L105.660982,23.4915015 L104.885398,23.4915015 L104.885398,23.4894741 L104.885398,23.4894741 Z M116.855638,30.4802562 L116.855638,27.9955684 L117.631222,27.9955684 L117.631222,23.449938 L116.855638,23.449938 L116.855638,20.9824839 L120.784869,20.9824839 L121.217065,22.160455 C121.936404,21.1467105 122.81757,20.6388245 123.853656,20.6388245 C124.406235,20.6388245 124.890728,20.7229653 125.309109,20.8892194 C125.72157,21.0514185 126.04621,21.2622774 126.281056,21.521796 C126.516889,21.7843558 126.708318,22.1067265 126.851396,22.489922 C126.989541,22.8761586 127.085256,23.2502304 127.132619,23.6141646 C127.181957,23.9750577 127.208599,24.378528 127.208599,24.8245756 L127.208599,27.9955684 L128.074964,27.9955684 L128.074964,30.4802562 L123.41554,30.4802562 L123.41554,24.8489054 C123.41554,24.7830121 123.400738,24.6380466 123.368176,24.4211053 C123.337586,24.1970677 123.286276,24.0409511 123.21819,23.9517416 C123.152078,23.8564496 123.044522,23.7631851 122.906378,23.6699206 C122.762312,23.5736149 122.588645,23.5219139 122.389322,23.5219139 C121.607817,23.5219139 121.217065,24.1119132 121.217065,25.2929255 L121.217065,27.9965822 L122.547201,27.9965822 L122.547201,30.4812699 L116.855638,30.4812699 L116.855638,30.4802562 L116.855638,30.4802562 Z M128.685761,25.6365849 C128.685761,24.2122739 129.106116,23.0495089 129.940904,22.1472763 C130.780627,21.2460575 131.795004,20.7959549 132.982062,20.7959549 C133.791195,20.7959549 134.566779,21.0362123 135.308814,21.5146998 L135.308814,18.7035862 L134.45725,18.7035862 L134.45725,16.2351183 L139.05747,16.2351183 L139.05747,28.0117883 L139.95245,28.0117883 L139.95245,30.4802562 L135.61964,30.4802562 L135.308814,29.7757038 C134.69407,30.3535381 133.917499,30.6434691 132.982062,30.6434691 C131.710144,30.6434691 130.674058,30.1528167 129.880713,29.1674571 C129.084407,28.1831111 128.685761,27.0081813 128.685761,25.6365849 L128.685761,25.6365849 Z M132.662356,25.6365849 C132.662356,26.2428041 132.783726,26.7841437 133.036333,27.2606036 C133.282033,27.7360498 133.603713,27.973266 133.992492,27.973266 C134.373377,27.973266 134.696043,27.7502422 134.966412,27.3021672 C135.204219,26.9068068 135.317695,26.401962 135.308814,25.7947291 L135.308814,25.5453479 C135.308814,24.9178401 135.173629,24.3805555 134.913128,23.9365354 C134.648679,23.4894741 134.337854,23.2654365 133.975717,23.2654365 C133.576084,23.2654365 133.255391,23.4823778 133.019558,23.914233 C132.777805,24.3400057 132.662356,24.9158126 132.662356,25.6365849 L132.662356,25.6365849 Z" id="Fill-1"></path>
                    <path d="M12.3905953,17.7101166 L15.6656121,23.7743363 L7.45882855,37.8329451 L4.18282501,31.8386738 L12.3905953,17.7101166 L12.3905953,17.7101166 Z M8.41301392,10.2205722 L11.6880307,16.2847918 L3.37862534,30.2572324 L0.102621798,24.2639749 L8.41301392,10.2205722 L8.41301392,10.2205722 Z M16.9809473,24.5305897 L23.8003631,24.5305897 L15.5166132,38.5222914 L8.91230844,38.5222914 L16.9809473,24.5305897 L16.9809473,24.5305897 Z M25.5390132,24.5305897 L32.358429,24.5305897 L24.0746791,38.5222914 L17.4703743,38.5222914 L25.5390132,24.5305897 L25.5390132,24.5305897 Z M21.8288405,15.6481603 C19.9925024,13.0975791 12.6520836,3.29061468 16.6770289,0.477473665 C18.0328207,-0.469363708 20.0536807,0.202748902 21.8702839,1.23575456 C24.1151357,2.5120589 25.6672904,5.18327568 25.4363914,8.8824294 C28.3601259,6.71301615 31.4101641,6.7961432 33.7852667,7.87679485 C35.6827832,8.74050517 36.9793701,10.3118092 36.9793701,11.9996938 C36.9793701,17.1961481 21.8288405,15.6481603 21.8288405,15.6481603 L21.8288405,15.6481603 Z M27.2342463,12.6707926 C30.5112366,12.5410333 33.748757,12.2217038 33.748757,12.2217038 C33.3165613,11.6266358 32.8587102,11.2201242 32.3959254,10.9565507 C30.3573039,9.79885444 27.2342463,12.6707926 27.2342463,12.6707926 L27.2342463,12.6707926 Z M20.0230915,3.92825998 C19.5583332,3.66367266 18.9800988,3.48423988 18.2617463,3.42240147 C18.2617463,3.42240147 19.6658887,6.80019818 21.4005918,9.83534924 C21.4005918,9.83534924 22.4435845,5.30391128 20.0230915,3.92825998 L20.0230915,3.92825998 Z M23.8082571,23.0728251 L17.0036425,23.0748526 L13.7177715,17.0157016 L20.5756705,17.038004 L23.8082571,23.0728251 L23.8082571,23.0728251 Z M32.366323,23.0728251 L25.5626951,23.0748526 L22.2758374,17.0157016 L29.1327496,17.038004 L32.366323,23.0728251 L32.366323,23.0728251 Z M19.9994096,15.8326618 L13.1957817,15.8346893 L9.90892397,9.77553832 L16.7658362,9.7978407 L19.9994096,15.8326618 L19.9994096,15.8326618 Z"></path>
                </g>
            </g>
        </g>
    </g>
</svg>