<svg xmlns="http://www.w3.org/2000/svg" width="210" height="221">
  <g fill="#596472" fill-rule="evenodd">
    <path d="M34.808 93.868c-11.793 0-21.387 9.736-21.387 21.704 0 11.97 9.6 21.706 21.39 21.706 11.8 0 21.39-9.737 21.39-21.706 0-11.968-9.59-21.704-21.38-21.704m0 45.928c-13.16 0-23.87-10.866-23.87-24.224 0-13.356 10.71-24.222 23.87-24.222s23.87 10.866 23.87 24.222c0 13.358-10.7 24.224-23.86 24.224m55.46-45.928c-11.79 0-21.39 9.736-21.39 21.704 0 11.97 9.6 21.706 21.39 21.706 11.79 0 21.39-9.737 21.39-21.706 0-11.968-9.59-21.704-21.38-21.704m0 45.928c-13.16 0-23.87-10.866-23.87-24.224 0-13.356 10.71-24.222 23.87-24.222s23.87 10.866 23.87 24.222c0 13.358-10.7 24.224-23.86 24.224"/>
    <path d="M54.336 114.32c0 2.383-1.903 4.312-4.248 4.312-2.347 0-4.248-1.93-4.248-4.31 0-2.383 1.9-4.313 4.248-4.313 2.345 0 4.248 1.93 4.248 4.31m55.41-1.68c0 2.38-1.904 4.31-4.25 4.31s-4.25-1.93-4.25-4.31 1.904-4.31 4.25-4.31 4.25 1.93 4.25 4.31m-51.073 79.37c-17.764 0-32.494 12.52-34.92 28.76h2.505c2.414-14.84 16.03-26.24 32.415-26.24 16.386 0 30.002 11.4 32.416 26.24h2.5c-2.43-16.23-17.16-28.76-34.92-28.76m.46-53.77c1.24.73 6.19.73 7.43 0-.21-1.21-1.83-2.19-3.72-2.19-1.89 0-3.51.97-3.72 2.18m3.71 3.06c-1.42 0-2.75-.16-3.75-.43-2.05-.56-2.48-1.6-2.48-2.37 0-2.79 2.73-4.97 6.22-4.97 3.48 0 6.21 2.18 6.21 4.97 0 2.43-3.9 2.79-6.22 2.79"/>
    <path d="M69.57 153.08c-.92 0-1.835-.16-2.708-.54-3.107-1.356-4.873-5.1-5.25-11.132-.045-.693.475-1.29 1.158-1.337.67-.05 1.273.49 1.318 1.18.214 3.45 1.04 7.8 3.753 8.98 3.16 1.38 8-1.82 9.59-3.17.53-.44 1.31-.37 1.75.16.44.54.37 1.33-.15 1.78-.23.2-4.89 4.1-9.45 4.1"/>
    <path d="M56.493 153.08c-4.552 0-9.215-3.9-9.45-4.098-.525-.445-.594-1.238-.157-1.772.438-.532 1.22-.607 1.747-.16 1.6 1.35 6.442 4.553 9.59 3.174 2.713-1.185 3.538-5.535 3.752-8.976.044-.693.637-1.227 1.318-1.177.683.05 1.203.65 1.16 1.34-.38 6.03-2.145 9.78-5.252 11.13-.87.38-1.78.54-2.7.54"/>
    <path d="M62.882 160.14c-4.873 0-8.318-6.808-8.463-7.098l2.21-1.137c.8 1.594 3.47 5.717 6.25 5.717h.02c2.36-.023 4.32-3.11 5.56-5.697l2.23 1.098c-2.25 4.697-4.86 7.09-7.78 7.116h-.05m-29.3-72.67h-.01zm0 0zm0 0z"/>
    <path d="M206.893 64.928c0 6.33-4.18 12.162-10.912 15.22l-.1.057-47.48 20.292v-16.99c0-.695-.55-1.26-1.24-1.26H80.78c-6.685 0-12.626-2.655-16.428-6.758-.71-.77-1.354-1.58-1.903-2.43-1.56-2.43-2.45-5.2-2.45-8.14V19.97c0-9.55 9.32-17.32 20.77-17.32h105.34c11.45 0 20.77 7.77 20.77 17.32v44.953zm-70.938 92.352c.045-.033.095-.062.142-.095.896-.634 1.846-1.157 2.837-1.56 1.653-.674 3.413-1.024 5.206-1.024.776 0 1.558.07 2.338.2 1.275.22 2.49.61 3.63 1.15 1.357.64 2.61 1.48 3.703 2.52.68.64 1.29 1.36 1.84 2.14 4.53 6.43 3.07 15.39-3.26 19.99l-16.54 12.01c-3.33 2.42-7.36 3.14-11.09 2.36-.84-.17-1.67-.43-2.48-.76-2.37-.98-4.52-2.62-6.12-4.9-4.53-6.42-3.06-15.39 3.27-19.99l.87-.63 2-1.45 2.48-1.8 11.2-8.13zM3.022 187.316c.712-3.835 2.842-7.15 5.994-9.333l13.08-9.062c2.47-1.71 5.283-2.53 8.07-2.53 4.588 0 9.1 2.23 11.877 6.35 4.46 6.64 2.773 15.72-3.764 20.25l-13.08 9.06c-3.16 2.19-6.97 2.99-10.75 2.27-3.78-.72-7.05-2.88-9.2-6.08-2.15-3.2-2.95-7.07-2.23-10.91zM186.12.136H80.78c-12.824 0-23.255 8.9-23.255 19.84v44.952c0 2.91.756 5.667 2.082 8.16-12.846.198-25.235 1.296-29.836 3.243C18.84 64.85 10.6 59.66 5.29 60.9c-2.365.55-9.55 2.226-1.73 48.777C1.22 116.705.03 124.07.03 131.57v76.983c0 4.1.36 8.102 1.028 11.98l.058.237h2.53c-.725-3.948-1.134-8.027-1.134-12.217V198.49c.22.39.44.778.69 1.153 2.526 3.754 6.357 6.29 10.79 7.137 1.06.204 2.123.304 3.18.304 3.35 0 6.614-1.013 9.43-2.962l13.08-9.06c7.663-5.312 9.642-15.963 4.41-23.744-5.234-7.78-15.727-9.788-23.394-4.478L7.62 175.9c-2.14 1.483-3.864 3.42-5.11 5.653v-8.1c1.084-1.542 2.396-2.926 3.86-4.185.212-.183.445-.348.663-.526.45-.37.897-.746 1.375-1.09.258-.184.524-.36.79-.54 12.46-8.397 32.072-9.526 32.315-9.537.685-.037 1.21-.627 1.176-1.322-.04-.695-.63-1.23-1.3-1.193-1.01.05-20.12 1.15-33.06 9.598-.71.46-1.4.938-2.06 1.443l-.03.03c-.68.52-1.33 1.07-1.96 1.63-.62.56-1.22 1.13-1.78 1.74v-13.22c12.09-11.43 38.88-6.1 39.16-6.04.66.13 1.32-.3 1.46-.98.13-.68-.3-1.34-.97-1.48-1.12-.23-26.11-5.21-39.65 5.23V131.6c0-7.33 1.17-14.525 3.49-21.38.07-.2.08-.414.05-.62C.5 76.77 2.3 64.2 5.83 63.372c4.37-1.03 12.46 4.44 22.77 15.386.4.43 1.04.51 1.54.21 3.47-2.13 17.12-3.3 30.99-3.44 4.12 5.56 11.37 9.26 19.64 9.26h39.96c-.44 6.03-1.33 13.47-2.81 22.55-.04.22-.01.45.063.66 2.84 7.49 4.28 15.43 4.28 23.596v21.67c-12.92-10.77-37.24-5.71-38.32-5.47-.67.145-1.1.81-.95 1.49.14.68.807 1.118 1.47.97.27-.06 26.45-5.51 37.81 6.417v7.48l-1.99 1.45c-13.34-9.27-34.453-10.442-35.53-10.5-.673-.03-1.266.5-1.3 1.2-.033.7.494 1.29 1.18 1.32.25.01 20.59 1.13 33.493 9.56l-.155.11c-7.44 5.407-9.16 15.95-3.84 23.5 2.1 2.97 4.98 5.03 8.15 6.12v11.69c0 4.12-.39 8.214-1.14 12.22h2.51c.72-4.01 1.11-8.1 1.11-12.216v-11.06c.95.17 1.92.283 2.89.283 3.35 0 6.72-1.02 9.64-3.14l16.54-12.01c7.44-5.41 9.16-15.95 3.84-23.504-.16-.233-.342-.446-.52-.67-.71-.944-2.423-2.52-2.423-2.52-2.23-1.87-4.907-3.132-7.836-3.625-3.75-.63-7.51.05-10.782 1.907l-2.18 1.44-9.16 6.65V131.6c0-8.36-1.45-16.49-4.32-24.175 1.505-9.3 2.382-16.7 2.816-22.63h22.66v17.62c0 .42.21.82.56 1.05.21.14.446.21.686.21.163 0 .33-.03.48-.094L197 82.46c.06-.024.115-.05.166-.086 7.543-3.49 12.22-10.158 12.22-17.444V19.98c0-10.94-10.43-19.84-23.255-19.84z"/>
    <text font-family="OpenSans-Extrabold, Open Sans" font-size="13" font-weight="600">
      <tspan x="69" y="47">wirnd.com/mywish</tspan>
    </text>
  </g>
</svg>
